<?xml version="1.0" encoding="UTF-8"?>
<!-- Do not edit this file with editors other than draw.io -->
<!DOCTYPE svg PUBLIC "-//W3C//DTD SVG 1.1//EN" "http://www.w3.org/Graphics/SVG/1.1/DTD/svg11.dtd">
<svg xmlns="http://www.w3.org/2000/svg" xmlns:xlink="http://www.w3.org/1999/xlink" version="1.1" width="81px" height="81px" viewBox="-0.5 -0.5 81 81" content="&lt;mxfile host=&quot;app.diagrams.net&quot; modified=&quot;2024-06-16T13:04:05.737Z&quot; agent=&quot;Mozilla/5.0 (Windows NT 10.0; Win64; x64) AppleWebKit/537.36 (KHTML, like Gecko) Chrome/126.0.0.0 Safari/537.36&quot; etag=&quot;qozfun8rQbbH896fp7S_&quot; scale=&quot;1&quot; border=&quot;0&quot; version=&quot;24.2.1&quot;&gt;&#10;  &lt;diagram name=&quot;Page-1&quot; id=&quot;Oc1AOMkfwNUoNLNHvQWb&quot;&gt;&#10;    &lt;mxGraphModel dx=&quot;191&quot; dy=&quot;101&quot; grid=&quot;1&quot; gridSize=&quot;10&quot; guides=&quot;1&quot; tooltips=&quot;1&quot; connect=&quot;1&quot; arrows=&quot;1&quot; fold=&quot;1&quot; page=&quot;1&quot; pageScale=&quot;1&quot; pageWidth=&quot;827&quot; pageHeight=&quot;1169&quot; math=&quot;0&quot; shadow=&quot;0&quot;&gt;&#10;      &lt;root&gt;&#10;        &lt;mxCell id=&quot;0&quot; /&gt;&#10;        &lt;mxCell id=&quot;1&quot; parent=&quot;0&quot; /&gt;&#10;        &lt;mxCell id=&quot;J4CwGb8VOjN_MeTSt9t4-125&quot; value=&quot;&quot; style=&quot;ellipse;whiteSpace=wrap;html=1;aspect=fixed;fillColor=#FFCEAD;strokeColor=#D7500D;movable=0;resizable=0;rotatable=0;deletable=0;editable=0;locked=1;connectable=0;&quot; vertex=&quot;1&quot; parent=&quot;1&quot;&gt;&#10;          &lt;mxGeometry x=&quot;430&quot; y=&quot;380&quot; width=&quot;80&quot; height=&quot;80&quot; as=&quot;geometry&quot; /&gt;&#10;        &lt;/mxCell&gt;&#10;        &lt;mxCell id=&quot;J4CwGb8VOjN_MeTSt9t4-126&quot; value=&quot;&quot; style=&quot;shape=mxgraph.signs.animals.fish_hatchery;html=1;pointerEvents=1;fillColor=#000000;strokeColor=none;verticalLabelPosition=bottom;verticalAlign=top;align=center;&quot; vertex=&quot;1&quot; parent=&quot;1&quot;&gt;&#10;          &lt;mxGeometry x=&quot;438.62&quot; y=&quot;392.5&quot; width=&quot;62.76&quot; height=&quot;55&quot; as=&quot;geometry&quot; /&gt;&#10;        &lt;/mxCell&gt;&#10;      &lt;/root&gt;&#10;    &lt;/mxGraphModel&gt;&#10;  &lt;/diagram&gt;&#10;&lt;/mxfile&gt;&#10;"><defs><style type="text/css">@import url(https://fonts.googleapis.com/css2?family=Gochi+Hand:wght@400;500);&#xa;@import url(https://fonts.googleapis.com/css2?family=Ephesis:wght@400;500);&#xa;</style></defs><g><g><ellipse cx="40" cy="40" rx="40" ry="40" fill="#ffcead" stroke="#d7500d" pointer-events="all"/></g><g><rect x="8.62" y="12.5" width="62.76" height="55" fill="none" stroke="none" pointer-events="all"/><path d="M 19.41 28.2 C 20.55 28.2 21.53 27.27 21.53 26.14 C 21.53 25.01 20.56 24.08 19.41 24.08 C 18.27 24.08 17.3 25.01 17.3 26.14 C 17.3 27.27 18.27 28.2 19.41 28.2 M 8.68 31.24 L 8.68 31.24 C 8.65 31.21 8.62 31.14 8.62 31.09 C 8.62 30.97 8.73 30.87 8.85 30.87 L 15.53 30.87 C 15.86 30.87 16.12 30.62 16.12 30.3 C 16.12 30.05 16.01 29.89 15.77 29.74 L 9.72 26.91 C 9.61 26.85 9.53 26.73 9.53 26.58 C 9.53 26.48 9.56 26.39 9.64 26.31 C 9.64 26.31 25.51 12.5 60.67 25.88 L 70.32 21.24 C 70.41 21.2 70.52 21.17 70.62 21.17 C 71.04 21.17 71.38 21.5 71.38 21.91 C 71.38 22.05 71.34 22.17 71.27 22.28 L 65.58 29.26 L 71.27 36.22 C 71.34 36.34 71.38 36.47 71.38 36.61 C 71.38 37.01 71.04 37.35 70.62 37.35 C 70.52 37.35 70.41 37.31 70.32 37.27 L 60.67 32.63 C 60.66 32.64 27.06 45.78 8.68 31.24 Z M 16.9 47.87 C 17.57 47.87 18.15 47.35 18.15 46.67 C 18.15 46.02 17.57 45.47 16.9 45.47 C 16.25 45.47 15.67 46.03 15.67 46.67 C 15.68 47.35 16.25 47.87 16.9 47.87 M 12.15 48.57 L 12.15 48.57 C 12.13 48.55 12.12 48.52 12.12 48.5 C 12.12 48.45 12.16 48.42 12.22 48.42 L 14.89 48.42 C 15 48.42 15.12 48.31 15.12 48.19 C 15.12 48.09 15.07 48.02 14.98 47.98 L 12.56 46.84 C 12.52 46.81 12.49 46.76 12.49 46.7 C 12.49 46.65 12.5 46.6 12.53 46.59 C 12.53 46.59 18.87 41.06 32.93 46.43 L 36.79 44.57 C 36.82 44.55 36.87 44.54 36.92 44.54 C 37.09 44.54 37.21 44.67 37.21 44.82 C 37.21 44.89 37.2 44.94 37.18 44.97 L 34.9 47.76 L 37.18 50.55 C 37.19 50.6 37.21 50.66 37.21 50.71 C 37.21 50.87 37.08 51.01 36.92 51.01 C 36.88 51.01 36.82 50.99 36.79 50.97 L 32.93 49.11 C 32.93 49.12 19.51 54.37 12.15 48.57 Z M 48.97 47.37 C 49.64 47.37 50.22 46.85 50.22 46.17 C 50.22 45.52 49.64 44.97 48.97 44.97 C 48.32 44.97 47.74 45.52 47.74 46.17 C 47.75 46.85 48.32 47.37 48.97 47.37 M 44.22 48.07 L 44.22 48.07 C 44.2 48.05 44.19 48.02 44.19 48 C 44.19 47.95 44.23 47.92 44.3 47.92 L 46.96 47.92 C 47.08 47.92 47.19 47.81 47.19 47.69 C 47.19 47.59 47.15 47.52 47.05 47.48 L 44.64 46.34 C 44.59 46.31 44.56 46.26 44.56 46.2 C 44.56 46.15 44.57 46.1 44.61 46.09 C 44.61 46.09 50.94 40.56 65 45.93 L 68.87 44.07 C 68.9 44.05 68.94 44.03 68.99 44.03 C 69.16 44.03 69.28 44.17 69.28 44.32 C 69.28 44.39 69.27 44.44 69.25 44.47 L 66.97 47.26 L 69.25 50.05 C 69.26 50.1 69.28 50.16 69.28 50.2 C 69.28 50.37 69.15 50.51 68.99 50.51 C 68.95 50.51 68.9 50.49 68.87 50.47 L 65 48.61 C 65 48.62 51.58 53.87 44.22 48.07 Z M 30.66 61 C 31.33 61 31.91 60.48 31.91 59.8 C 31.91 59.15 31.33 58.6 30.66 58.6 C 30.01 58.6 29.43 59.15 29.43 59.8 C 29.43 60.47 30.01 61 30.66 61 M 25.91 61.69 L 25.91 61.69 C 25.89 61.68 25.88 61.64 25.88 61.63 C 25.88 61.57 25.92 61.54 25.98 61.54 L 28.65 61.54 C 28.76 61.54 28.88 61.43 28.88 61.31 C 28.88 61.21 28.83 61.14 28.74 61.1 L 26.32 59.96 C 26.28 59.93 26.25 59.89 26.25 59.82 C 26.25 59.78 26.26 59.73 26.29 59.71 C 26.29 59.71 32.63 54.18 46.69 59.55 L 50.55 57.69 C 50.58 57.68 50.63 57.66 50.68 57.66 C 50.85 57.66 50.97 57.79 50.97 57.95 C 50.97 58.01 50.96 58.06 50.94 58.09 L 48.66 60.89 L 50.94 63.67 C 50.95 63.72 50.97 63.78 50.97 63.83 C 50.97 63.99 50.84 64.13 50.68 64.13 C 50.64 64.13 50.58 64.12 50.55 64.1 L 46.69 62.24 C 46.69 62.24 33.27 67.5 25.91 61.69" fill="#000000" stroke="none" pointer-events="all"/></g></g></svg>